…
julia> rws = RewritingSystem([complex_unit; cyclic; commutations], LenLex(A));

julia> rwsC = knuthbendix(rws)
Rewriting System with 507 active rules ordered by LenLex: I < σˣ₁ < σˣ₂ < σˣ₃ < σˣ₄ < σʸ₁ < σʸ₂ < σʸ₃ < σʸ₄ < σᶻ₁ < σᶻ₂ < σᶻ₃ < σᶻ₄:
┌──────┬──────────────────────────────────┬──────────────────────────────────┐
│ Rule │                              lhs │ rhs                              │
├──────┼──────────────────────────────────┼──────────────────────────────────┤
│    1 │                            σˣ₁^2 │ (id)                             │
│    2 │                            σˣ₂^2 │ (id)                             │
│    3 │                            σˣ₃^2 │ (id)                             │
│    4 │                            σˣ₄^2 │ (id)                             │
│    5 │                            σʸ₁^2 │ (id)                             │
│    6 │                            σʸ₂^2 │ (id)                             │
│    7 │                            σʸ₃^2 │ (id)                             │
│    8 │                            σʸ₄^2 │ (id)                             │
│    9 │                            σᶻ₁^2 │ (id)                             │
│   10 │                            σᶻ₂^2 │ (id)                             │
│   11 │                            σᶻ₃^2 │ (id)                             │
│   12 │                            σᶻ₄^2 │ (id)                             │
│   13 │                          σˣ₁*σʸ₁ │ I*σᶻ₁                            │
│  ⋮   │                ⋮                 │                ⋮                 │
└──────┴──────────────────────────────────┴──────────────────────────────────┘
                                                              494 rows omitted
…
### Weighting the letters

If we want to force normalforms to begin with `I` (if a word with such
presentation represents the given monomial) we could use [`WeightedLex`](@ref)
ordering, weighting other letters disproportionally higher than `w`, e.g.

```jldoctest spin_example
julia> wLA = WeightedLex(A, weights = [1; [1000 for _ in 2:length(A)]])
WeightedLex: I(1) < σˣ₁(1000) < σˣ₂(1000) < σˣ₃(1000) < σˣ₄(1000) < σʸ₁(1000) < σʸ₂(1000) < σʸ₃(1000) < σʸ₄(1000) < σᶻ₁(1000) < σᶻ₂(1000) < σᶻ₃(1000) < σᶻ₄(1000)

julia> rws2 = RewritingSystem([complex_unit; cyclic; commutations], wLA);

julia> rwsC2 = knuthbendix(rws2)
Rewriting System with 263 active rules ordered by WeightedLex: I(1) < σˣ₁(1000) < σˣ₂(1000) < σˣ₃(1000) < σˣ₄(1000) < σʸ₁(1000) < σʸ₂(1000) < σʸ₃(1000) < σʸ₄(1000) < σᶻ₁(1000) < σᶻ₂(1000) < σᶻ₃(1000) < σᶻ₄(1000):
┌──────┬──────────────────────────────────┬──────────────────────────────────┐
│ Rule │                              lhs │ rhs                              │
├──────┼──────────────────────────────────┼──────────────────────────────────┤
│    1 │                            σˣ₁^2 │ (id)                             │
│    2 │                            σˣ₂^2 │ (id)                             │
│    3 │                            σˣ₃^2 │ (id)                             │
│    4 │                            σˣ₄^2 │ (id)                             │
│    5 │                            σʸ₁^2 │ (id)                             │
│    6 │                            σʸ₂^2 │ (id)                             │
│    7 │                            σʸ₃^2 │ (id)                             │
│    8 │                            σʸ₄^2 │ (id)                             │
│    9 │                            σᶻ₁^2 │ (id)                             │
│   10 │                            σᶻ₂^2 │ (id)                             │
│   11 │                            σᶻ₃^2 │ (id)                             │
│   12 │                            σᶻ₄^2 │ (id)                             │
│   13 │                          σˣ₁*σʸ₁ │ I*σᶻ₁                            │
│  ⋮   │                ⋮                 │                ⋮                 │
└──────┴──────────────────────────────────┴──────────────────────────────────┘
                                                              250 rows omitted
…
