Non-commutative Gröbner bases · KnuthBendix.jl
…
julia> rws = RewritingSystem([complex_unit; cyclic; commutations], LenLex(A));

julia> rwsC = knuthbendix(rws)
reduced, confluent rewriting system with 507 active rules.
rewriting ordering: LenLex: I < σˣ₁ < σˣ₂ < σˣ₃ < σˣ₄ < σʸ₁ < σʸ₂ < σʸ₃ < σʸ₄ < σᶻ₁ < σᶻ₂ < σᶻ₃ < σᶻ₄
┌──────┬──────────────────────────────────┬──────────────────────────────────┐
│ Rule │                              lhs │ rhs                              │
├──────┼──────────────────────────────────┼──────────────────────────────────┤
│    1 │                            σˣ₁*I │ I*σˣ₁                            │
│    2 │                            σˣ₁^2 │ (id)                             │
│    3 │                          σˣ₁*σʸ₁ │ I*σᶻ₁                            │
│    4 │                            σˣ₂*I │ I*σˣ₂                            │
│    5 │                          σˣ₂*σˣ₁ │ σˣ₁*σˣ₂                          │
│    6 │                            σˣ₂^2 │ (id)                             │
│    7 │                          σˣ₂*σʸ₂ │ I*σᶻ₂                            │
│    8 │                            σˣ₃*I │ I*σˣ₃                            │
│    9 │                          σˣ₃*σˣ₁ │ σˣ₁*σˣ₃                          │
│   10 │                          σˣ₃*σˣ₂ │ σˣ₂*σˣ₃                          │
│   11 │                            σˣ₃^2 │ (id)                             │
│   12 │                          σˣ₃*σʸ₃ │ I*σᶻ₃                            │
│   13 │                            σˣ₄*I │ I*σˣ₄                            │
│  ⋮   │                ⋮                 │                ⋮                 │
└──────┴──────────────────────────────────┴──────────────────────────────────┘
                                                              494 rows omitted
…
Indeed, rewriting brings both of the words to the same form, so they must represent the same element in the monoid.
Weighting the letters
If we want to force normalforms to begin with I (if a word with such presentation represents the given monomial) we could use WeightedLex ordering, weighting other letters disproportionally higher than I, e.g.

julia> wLA = WeightedLex(A, weights = [1; [10 for _ in 2:length(A)]])
WeightedLex: I(1) < σˣ₁(10) < σˣ₂(10) < σˣ₃(10) < σˣ₄(10) < σʸ₁(10) < σʸ₂(10) < σʸ₃(10) < σʸ₄(10) < σᶻ₁(10) < σᶻ₂(10) < σᶻ₃(10) < σᶻ₄(10)

julia> rws2 = RewritingSystem([complex_unit; cyclic; commutations], wLA);

julia> rwsC2 = knuthbendix(rws2)
reduced, confluent rewriting system with 263 active rules.
rewriting ordering: WeightedLex: I(1) < σˣ₁(10) < σˣ₂(10) < σˣ₃(10) < σˣ₄(10) < σʸ₁(10) < σʸ₂(10) < σʸ₃(10) < σʸ₄(10) < σᶻ₁(10) < σᶻ₂(10) < σᶻ₃(10) < σᶻ₄(10)
┌──────┬──────────────────────────────────┬──────────────────────────────────┐
│ Rule │                              lhs │ rhs                              │
├──────┼──────────────────────────────────┼──────────────────────────────────┤
│    1 │                              I^4 │ (id)                             │
│    2 │                            σˣ₁*I │ I*σˣ₁                            │
│    3 │                            σˣ₂*I │ I*σˣ₂                            │
│    4 │                            σˣ₃*I │ I*σˣ₃                            │
│    5 │                            σˣ₄*I │ I*σˣ₄                            │
│    6 │                            σʸ₁*I │ I*σʸ₁                            │
│    7 │                            σʸ₂*I │ I*σʸ₂                            │
│    8 │                            σʸ₃*I │ I*σʸ₃                            │
│    9 │                            σʸ₄*I │ I*σʸ₄                            │
│   10 │                            σᶻ₁*I │ I*σᶻ₁                            │
│   11 │                            σᶻ₂*I │ I*σᶻ₂                            │
│   12 │                            σᶻ₃*I │ I*σᶻ₃                            │
│   13 │                            σᶻ₄*I │ I*σᶻ₄                            │
│  ⋮   │                ⋮                 │                ⋮                 │
└──────┴──────────────────────────────────┴──────────────────────────────────┘
                                                              250 rows omitted
…
